%YAML 1.1
%TAG !u! tag:unity3d.com,2011:
--- !u!1045 &1
EditorBuildSettings:
  m_ObjectHideFlags: 0
  serializedVersion: 2
  m_Scenes:
  - enabled: 1
    path: Assets/Scenes/MiMenu.unity
    guid: bb398e7b9fe98954b9ccb4d4e6472f71
  - enabled: 1
    path: Assets/Scenes/SampleScene.unity
    guid: 9fc0d4010bbf28b4594072e72b8655ab
  - enabled: 1
    path: Assets/Scenes/SampleScene1.unity
    guid: 6e829434ee3b8b0479819f2a580b1e4a
  - enabled: 1
    path: Assets/Scenes/SampleScene2.unity
    guid: bac7b89eb0a509b4fb0e4600a7f5e809
  m_configObjects: {}
